module github.com/zhoushuguang/lebron

go 1.18

require (
	github.com/aliyun/aliyun-oss-go-sdk v2.2.4+incompatible
	github.com/golang-jwt/jwt v3.2.2+incompatible
	github.com/jinzhu/copier v0.3.5
	github.com/pkg/errors v0.9.1
	github.com/zeromicro/go-zero v1.3.4
	go.opentelemetry.io/otel v1.7.0
	go.opentelemetry.io/otel/trace v1.7.0
	google.golang.org/grpc v1.47.0
	google.golang.org/protobuf v1.28.0
)

require (
	github.com/beorn7/perks v1.0.1 // indirect
	github.com/cespare/xxhash/v2 v2.1.2 // indirect
	github.com/coreos/go-semver v0.3.0 // indirect
	github.com/coreos/go-systemd/v22 v22.3.2 // indirect
	github.com/davecgh/go-spew v1.1.1 // indirect
	github.com/dgryski/go-rendezvous v0.0.0-20200823014737-9f7001d12a5f // indirect
	github.com/fatih/color v1.13.0 // indirect
	github.com/go-logr/logr v1.2.3 // indirect
	github.com/go-logr/stdr v1.2.2 // indirect
	github.com/go-redis/redis/v8 v8.11.5 // indirect
	github.com/go-sql-driver/mysql v1.6.0 // indirect
	github.com/gogo/protobuf v1.3.2 // indirect
	github.com/golang-jwt/jwt/v4 v4.4.1 // indirect
	github.com/golang/mock v1.6.0 // indirect
	github.com/golang/protobuf v1.5.2 // indirect
	github.com/google/go-cmp v0.5.7 // indirect
	github.com/google/gofuzz v1.2.0 // indirect
	github.com/google/uuid v1.3.0 // indirect
	github.com/googleapis/gnostic v0.5.5 // indirect
	github.com/json-iterator/go v1.1.12 // indirect
	github.com/justinas/alice v1.2.0 // indirect
	github.com/mattn/go-colorable v0.1.9 // indirect
	github.com/mattn/go-isatty v0.0.14 // indirect
	github.com/matttproud/golang_protobuf_extensions v1.0.2-0.20181231171920-c182affec369 // indirect
	github.com/modern-go/concurrent v0.0.0-20180306012644-bacd9c7ef1dd // indirect
	github.com/modern-go/reflect2 v1.0.2 // indirect
	github.com/openzipkin/zipkin-go v0.4.0 // indirect
	github.com/pelletier/go-toml/v2 v2.0.1 // indirect
	github.com/prometheus/client_golang v1.12.2 // indirect
	github.com/prometheus/client_model v0.2.0 // indirect
	github.com/prometheus/common v0.32.1 // indirect
	github.com/prometheus/procfs v0.7.3 // indirect
	github.com/spaolacci/murmur3 v1.1.0 // indirect
	go.etcd.io/etcd/api/v3 v3.5.4 // indirect
	go.etcd.io/etcd/client/pkg/v3 v3.5.4 // indirect
	go.etcd.io/etcd/client/v3 v3.5.4 // indirect
	go.opentelemetry.io/otel/exporters/jaeger v1.7.0 // indirect
	go.opentelemetry.io/otel/exporters/zipkin v1.7.0 // indirect
	go.opentelemetry.io/otel/sdk v1.7.0 // indirect
	go.uber.org/atomic v1.9.0 // indirect
	go.uber.org/automaxprocs v1.5.1 // indirect
	go.uber.org/multierr v1.8.0 // indirect
	go.uber.org/zap v1.21.0 // indirect
	golang.org/x/net v0.0.0-20220421235706-1d1ef9303861 // indirect
	golang.org/x/oauth2 v0.0.0-20210514164344-f6687ab2804c // indirect
	golang.org/x/sys v0.0.0-20220429233432-b5fbb4746d32 // indirect
	golang.org/x/term v0.0.0-20210927222741-03fcf44c2211 // indirect
	golang.org/x/text v0.3.7 // indirect
	golang.org/x/time v0.0.0-20220411224347-583f2d630306 // indirect
	google.golang.org/appengine v1.6.6 // indirect
	google.golang.org/genproto v0.0.0-20220422154200-b37d22cd5731 // indirect
	gopkg.in/inf.v0 v0.9.1 // indirect
	gopkg.in/yaml.v2 v2.4.0 // indirect
	gopkg.in/yaml.v3 v3.0.0-20210107192922-496545a6307b // indirect
	k8s.io/api v0.22.9 // indirect
	k8s.io/apimachinery v0.22.9 // indirect
	k8s.io/client-go v0.22.9 // indirect
	k8s.io/klog/v2 v2.40.1 // indirect
	k8s.io/utils v0.0.0-20220210201930-3a6ce19ff2f9 // indirect
	sigs.k8s.io/structured-merge-diff/v4 v4.2.1 // indirect
	sigs.k8s.io/yaml v1.2.0 // indirect
)

require (
	github.com/baiyubin/aliyun-sts-go-sdk v0.0.0-20180326062324-cfa1a18b161f // indirect
	github.com/satori/go.uuid v1.2.0 // indirect
	golang.org/x/sync v0.0.0-20220601150217-0de741cfad7f
)
